{
	"info": {
		"_postman_id": "0e15d99d-ac17-458f-8a68-409ce2f2716c",
		"name": "Simple Book API",
		"schema": "https://schema.getpostman.com/json/collection/v2.1.0/collection.json",
		"_exporter_id": "23323363"
	},
	"item": [
		{
			"name": "API Status",
			"event": [
				{
					"listen": "test",
					"script": {
						"exec": [
							"pm.test(\"Status code is 200\", function () {\r",
							"    pm.response.to.have.status(200);\r",
							"});\r",
							"\r",
							"const response = pm.response.json();\r",
							"console.log(response.status);\r",
							"console.log(response['status']);\r",
							"\r",
							"pm.test(\"Status should be OK\", () => {\r",
							"    pm.expect(response.status).to.eql(\"OK\");\r",
							"});\r",
							"\r",
							"postman.setNextRequest(\"List of Books\");\r",
							""
						],
						"type": "text/javascript"
					}
				}
			],
			"request": {
				"method": "GET",
				"header": [],
				"url": {
					"raw": "{{baseUrl}}/status",
					"host": [
						"{{baseUrl}}"
					],
					"path": [
						"status"
					]
				}
			},
			"response": []
		},
		{
			"name": "List of Books",
			"event": [
				{
					"listen": "test",
					"script": {
						"exec": [
							"pm.test(\"Status code is 200\", function () {\r",
							"    pm.response.to.have.status(200);\r",
							"});\r",
							"\r",
							"\r",
							"const response = pm.response.json();\r",
							"console.log(response[1].id);\r",
							"\r",
							"const nonFiksiBooks = response.filter((book) => book.available === true);\r",
							"console.log(nonFiksiBooks[0]);\r",
							"\r",
							"const book = nonFiksiBooks[0];\r",
							"pm.test(\"Book found\", () => {\r",
							"    pm.expect(book).to.be.an('object');\r",
							"    pm.expect(book.available).to.be.true;\r",
							"    pm.expect(book.available).to.eql(true);\r",
							"    pm.expect(book.type).to.eql(\"non-fiction\");\r",
							"});\r",
							"\r",
							"pm.globals.set(\"bookId\", nonFiksiBooks[0].id);\r",
							""
						],
						"type": "text/javascript"
					}
				}
			],
			"request": {
				"method": "GET",
				"header": [],
				"url": {
					"raw": "{{baseUrl}}/books?type=non-fiction",
					"host": [
						"{{baseUrl}}"
					],
					"path": [
						"books"
					],
					"query": [
						{
							"key": "type",
							"value": "non-fiction"
						},
						{
							"key": "limit",
							"value": "25",
							"disabled": true
						}
					]
				}
			},
			"response": []
		},
		{
			"name": "Get a Single book",
			"event": [
				{
					"listen": "test",
					"script": {
						"exec": [
							"pm.test(\"Status code is 200\", function () {\r",
							"    pm.response.to.have.status(200);\r",
							"});\r",
							"\r",
							"const response = pm.response.json();\r",
							"pm.test(\"Is in Stock\", () => {\r",
							"    pm.expect(response['current-stock']).to.be.above(0);\r",
							"});"
						],
						"type": "text/javascript"
					}
				}
			],
			"request": {
				"method": "GET",
				"header": [],
				"url": {
					"raw": "{{baseUrl}}/books/:bookId",
					"host": [
						"{{baseUrl}}"
					],
					"path": [
						"books",
						":bookId"
					],
					"variable": [
						{
							"key": "bookId",
							"value": "{{bookId}}"
						}
					]
				}
			},
			"response": []
		},
		{
			"name": "Order Book",
			"event": [
				{
					"listen": "test",
					"script": {
						"exec": [
							"pm.test(\"Status code is 201\", function () {\r",
							"    pm.response.to.have.status(201);\r",
							"});\r",
							"\r",
							"const response = pm.response.json();\r",
							"pm.globals.set(\"orderId\", response.orderId);"
						],
						"type": "text/javascript"
					}
				}
			],
			"request": {
				"auth": {
					"type": "bearer",
					"bearer": [
						{
							"key": "token",
							"value": "{{accessToken}}",
							"type": "string"
						}
					]
				},
				"method": "POST",
				"header": [],
				"body": {
					"mode": "raw",
					"raw": "{\r\n  \"bookId\": 3,\r\n  \"customerName\": \"{{$randomFullName}}\"\r\n}",
					"options": {
						"raw": {
							"language": "json"
						}
					}
				},
				"url": {
					"raw": "{{baseUrl}}/orders",
					"host": [
						"{{baseUrl}}"
					],
					"path": [
						"orders"
					]
				}
			},
			"response": []
		},
		{
			"name": "Get All Order",
			"event": [
				{
					"listen": "test",
					"script": {
						"exec": [
							"pm.test(\"Status code is 200\", function () {\r",
							"    pm.response.to.have.status(200);\r",
							"});"
						],
						"type": "text/javascript"
					}
				}
			],
			"request": {
				"auth": {
					"type": "bearer",
					"bearer": [
						{
							"key": "token",
							"value": "{{accessToken}}",
							"type": "string"
						}
					]
				},
				"method": "GET",
				"header": [],
				"url": {
					"raw": "{{baseUrl}}/orders",
					"host": [
						"{{baseUrl}}"
					],
					"path": [
						"orders"
					]
				}
			},
			"response": []
		},
		{
			"name": "Get an Order",
			"event": [
				{
					"listen": "test",
					"script": {
						"exec": [
							"pm.test(\"Status code is 200\", function () {\r",
							"    pm.response.to.have.status(200);\r",
							"});"
						],
						"type": "text/javascript"
					}
				}
			],
			"request": {
				"auth": {
					"type": "bearer",
					"bearer": [
						{
							"key": "token",
							"value": "{{accessToken}}",
							"type": "string"
						}
					]
				},
				"method": "GET",
				"header": [],
				"url": {
					"raw": "{{baseUrl}}/orders/:orderId",
					"host": [
						"{{baseUrl}}"
					],
					"path": [
						"orders",
						":orderId"
					],
					"variable": [
						{
							"key": "orderId",
							"value": "{{orderId}}"
						}
					]
				}
			},
			"response": []
		},
		{
			"name": "Update an Order",
			"event": [
				{
					"listen": "test",
					"script": {
						"exec": [
							"pm.test(\"Status code is 204\", function () {\r",
							"    pm.response.to.have.status(204);\r",
							"});"
						],
						"type": "text/javascript"
					}
				}
			],
			"request": {
				"auth": {
					"type": "bearer",
					"bearer": [
						{
							"key": "token",
							"value": "{{accessToken}}",
							"type": "string"
						}
					]
				},
				"method": "PATCH",
				"header": [],
				"body": {
					"mode": "raw",
					"raw": "{\r\n  \"customerName\": \"Johnatan {{$randomLastName}}\"\r\n}",
					"options": {
						"raw": {
							"language": "json"
						}
					}
				},
				"url": {
					"raw": "{{baseUrl}}/orders/:orderId",
					"host": [
						"{{baseUrl}}"
					],
					"path": [
						"orders",
						":orderId"
					],
					"variable": [
						{
							"key": "orderId",
							"value": "{{orderId}}"
						}
					]
				}
			},
			"response": []
		},
		{
			"name": "Delete an Order",
			"event": [
				{
					"listen": "test",
					"script": {
						"exec": [
							"pm.test(\"Status code is 204\", function () {\r",
							"    pm.response.to.have.status(204);\r",
							"});\r",
							"\r",
							"postman.setNextRequest(null)"
						],
						"type": "text/javascript"
					}
				}
			],
			"request": {
				"auth": {
					"type": "bearer",
					"bearer": [
						{
							"key": "token",
							"value": "{{accessToken}}",
							"type": "string"
						}
					]
				},
				"method": "DELETE",
				"header": [],
				"url": {
					"raw": "{{baseUrl}}/orders/:orderId",
					"host": [
						"{{baseUrl}}"
					],
					"path": [
						"orders",
						":orderId"
					],
					"variable": [
						{
							"key": "orderId",
							"value": "{{orderId}}"
						}
					]
				}
			},
			"response": []
		},
		{
			"name": "Register API Client",
			"event": [
				{
					"listen": "test",
					"script": {
						"exec": [
							"pm.test(\"Status code is 201\", function () {\r",
							"    pm.response.to.have.status(201);\r",
							"});"
						],
						"type": "text/javascript"
					}
				}
			],
			"request": {
				"auth": {
					"type": "bearer"
				},
				"method": "POST",
				"header": [],
				"body": {
					"mode": "raw",
					"raw": "{\r\n   \"clientName\": \"valentina\",\r\n   \"clientEmail\": \"valentinationtionra@example.com\"\r\n}",
					"options": {
						"raw": {
							"language": "json"
						}
					}
				},
				"url": {
					"raw": "{{baseUrl}}/api-clients",
					"host": [
						"{{baseUrl}}"
					],
					"path": [
						"api-clients"
					]
				}
			},
			"response": []
		}
	],
	"auth": {
		"type": "bearer"
	},
	"event": [
		{
			"listen": "prerequest",
			"script": {
				"type": "text/javascript",
				"exec": [
					""
				]
			}
		},
		{
			"listen": "test",
			"script": {
				"type": "text/javascript",
				"exec": [
					""
				]
			}
		}
	],
	"variable": [
		{
			"key": "baseUrl",
			"value": "https://simple-books-api.glitch.me"
		},
		{
			"key": "accessToken",
			"value": "276457ea264945732972951fe25327a69eb37f7e32f46559019db49d578236c0",
			"type": "string"
		}
	]
}